[gd_scene load_steps=3 format=2]

[ext_resource path="res://tests/thibault/Level.tscn" type="PackedScene" id=1]
[ext_resource path="res://tests/thibault/Block.tscn" type="PackedScene" id=2]

[node name="Level24" instance=ExtResource( 1 )]

[node name="GridMap" parent="." index="0"]
data = {
"cells": PoolIntArray( 2, 0, 1, 6, 0, 1, 65531, 0, 1, 65535, 0, 1, -65536, 0, 2, -65535, 0, 2, -65534, 0, 2, -65533, 0, 3, -65532, 0, 3, -65531, 0, -1073741821, -65530, 0, 2, -5, 0, 2, -4, 0, 2, -3, 0, 2, -2, 0, 2, -1, 0, 2, 2, 1, -1610612735, 6, 1, 1, 65531, 1, 1, 65532, 1, 1, -65536, 1, 2, -65535, 1, 2, -65534, 1, 2, -65533, 1, 2, -65532, 1, 2, -65531, 1, 3, -65530, 1, 2, -5, 1, 2, -4, 1, 2, -3, 1, 2, -2, 1, -1610612734, -1, 1, 2, 0, 2, 1073741825, 1, 2, 1, 2, 2, 1, 3, 2, 1, 4, 2, 1, 5, 2, 1, 6, 2, 1, 65532, 2, 1, 65533, 2, 1, 65534, 2, 1, 65535, 2, 1, -65536, 2, 2, -65535, 2, -1610612734, -65534, 2, 2, -65533, 2, 2, -65532, 2, 2, -65531, 2, 2, -65530, 2, 2, -4, 2, 2, -3, 2, 2, -2, 2, -1610612734, -1, 2, 2, 2, 65530, 1, 3, 65530, 1, 4, 65530, 1, 5, 65530, 1, 6, 65530, 1, 65529, 65530, 1, 65530, 65530, 1, 65531, 65530, 1, 65532, 65530, -1610612735, 65533, 65530, -1610612735, 65534, 65530, 1, -65534, 65530, 2, -65533, 65530, 2, -65532, 65530, -1610612734, -65531, 65530, 2, -65530, 65530, 2, -7, 65530, 2, -6, 65530, 2, -5, 65530, 2, -4, 65530, 2, -3, 65530, 2, -2, 65530, 2, 0, 65531, 1, 2, 65531, 1, 6, 65531, 1, 65529, 65531, 1, 65534, 65531, 1, 65535, 65531, -1610612735, -65536, 65531, 2, -65534, 65531, 2, -65533, 65531, 2, -65532, 65531, 2, -65531, 65531, 3, -65530, 65531, 2, -7, 65531, -1610612734, -6, 65531, -1610612734, -5, 65531, 2, -4, 65531, 2, -3, 65531, 2, -2, 65531, 2, -1, 65531, -1073741822, 0, 65532, 1, 2, 65532, 1, 6, 65532, -1610612735, 65529, 65532, 1, -65536, 65532, -1610612734, -65534, 65532, 2, -65533, 65532, 3, -65532, 65532, 3, -65531, 65532, 3, -65530, 65532, 2, -7, 65532, 2, -6, 65532, 2, -5, 65532, 2, -4, 65532, 2, -3, 65532, 2, -2, 65532, 2, -1, 65532, 2, 0, 65533, -1073741823, 1, 65533, -1610612735, 2, 65533, 1, 6, 65533, 1, 65529, 65533, 1, 65531, 65533, 1, -65536, 65533, 2, -65535, 65533, 2, -65534, 65533, 2, -65533, 65533, 2, -65532, 65533, 2, -65531, 65533, 3, -65530, 65533, -1610612734, -7, 65533, 2, -6, 65533, 2, -5, 65533, -1610612734, -4, 65533, 2, -3, 65533, 2, -2, 65533, 2, -1, 65533, 2, 6, 65534, 1, 65529, 65534, 1, -65536, 65534, -1610612734, -65535, 65534, 2, -65534, 65534, 2, -65533, 65534, 2, -65532, 65534, 2, -65531, 65534, 3, -65530, 65534, 2, -7, 65534, 2, -6, 65534, 2, -5, 65534, 2, -4, 65534, 2, -3, 65534, 2, -2, 65534, 2, -1, 65534, -1073741822, 2, 65535, 1, 6, 65535, 1, 65529, 65535, -1073741823, 65530, 65535, 1, 65531, 65535, 1, -65536, 65535, 2, -65535, 65535, 2, -65534, 65535, 2, -65533, 65535, 2, -65532, 65535, -1073741822, -65531, 65535, 3, -65530, 65535, -1610612734, -7, 65535, -1073741822, -6, 65535, -1073741822, -5, 65535, 2, -4, 65535, 2, -3, 65535, 2, -2, 65535, 2, -1, 65535, 2 )
}

[node name="Camera" parent="." index="1"]
transform = Transform( 0.999995, -0.00322885, 6.36513e-09, 0.000957486, 0.296541, 0.95502, -0.00308362, -0.955015, 0.296542, 1.02853, 14.7061, 2.3687 )

[node name="Character" parent="." index="2"]
transform = Transform( 1, 0, 0, 0, 1, 0, 0, 0, 1, 9, 0, -3 )

[node name="Block" parent="." index="5" instance=ExtResource( 2 )]
transform = Transform( 1, 0, 0, 0, 1, 0, 0, 0, 1, 1, 0, 1 )

[node name="Block2" parent="." index="6" instance=ExtResource( 2 )]
transform = Transform( 1, 0, 0, 0, 1, 0, 0, 0, 1, -3, 0, -3 )

[node name="Block3" parent="." index="7" instance=ExtResource( 2 )]
transform = Transform( 1, 0, 0, 0, 1, 0, 0, 0, 1, -3, 0, -1 )

[node name="Block4" parent="." index="8" instance=ExtResource( 2 )]
transform = Transform( 1, 0, 0, 0, 1, 0, 0, 0, 1, -3, 0, 1 )

[node name="Block5" parent="." index="9" instance=ExtResource( 2 )]
transform = Transform( 1, 0, 0, 0, 1, 0, 0, 0, 1, -3, 0, -5 )

[node name="Block6" parent="." index="10" instance=ExtResource( 2 )]
transform = Transform( 1, 0, 0, 0, 1, 0, 0, 0, 1, -3, 0, -7 )

[node name="Block7" parent="." index="11" instance=ExtResource( 2 )]
transform = Transform( 1, 0, 0, 0, 1, 0, 0, 0, 1, -5, 0, -3 )

[node name="Block8" parent="." index="12" instance=ExtResource( 2 )]
transform = Transform( 1, 0, 0, 0, 1, 0, 0, 0, 1, -7, 0, -3 )

[node name="Block9" parent="." index="13" instance=ExtResource( 2 )]
transform = Transform( 1, 0, 0, 0, 1, 0, 0, 0, 1, -7, 0, -7 )

[node name="Block10" parent="." index="14" instance=ExtResource( 2 )]
transform = Transform( 1, 0, 0, 0, 1, 0, 0, 0, 1, 5, 0, -3 )

[node name="Block11" parent="." index="15" instance=ExtResource( 2 )]
transform = Transform( 1, 0, 0, 0, 1, 0, 0, 0, 1, 3, 0, -1 )
